#TITLE: Test
#ARTIST: Test
#MP3: Test
#GAP: Test
#BPM: 5,5
#GENRE: Test
#EDITION: Test
#COVER: Test
#VIDEO: Test
#BACKGROUND: Test
: 0 2 12 Tee
: 2 2 12 nage
: 6 6 12 dreams
– 12
: 12 2 9 in
: 14 2 7 a
: 16 3 12 tee
: 20 3 12 nage
: 24 4 16 cir
: 28 3 14 cus
– 32
: 32 2 16 Run
: 34 1 16 ning
: 36 2 16 a
: 38 4 17 round
– 42
: 42 2 16 like
: 44 2 14 ~
: 46 2 12 a
: 48 2 12 clown
: 50 2 14 ~
: 52 4 16 on
: 56 3 11 pur
: 60 3 12 pose
– 64
: 64 1 12 Who
: 66 2 12 gives
: 68 2 9 a
: 70 4 12 damn
– 74
: 74 2 9 a
: 76 2 12 bout
: 78 2 9 the
: 80 1 12 fa
: 82 1 12 mily
: 84 4 12 you
: 88 4 16 come
: 92 3 14 from?
– 96
: 96 1 16 No
: 98 2 16 gi
: 100 2 16 ving
: 102 4 17 up
– 106
: 106 2 16 when
: 108 2 14 you’re
: 110 1 12 ~
: 112 2 12 young
: 114 2 14 and
: 116 4 16 you
: 120 4 11 want
: 124 3 12 some